waves.vcd
$date
     Mar 15, 2022       11:30:12
$end

$version
 SystemC 2.3.3-Accellera --- Feb 12 2022 19:51:55
$end

$timescale
     1 ns
$end

$scope module SystemC $end
$var wire    1  aaaaa  clk       $end
$var wire    1  aaaab  data_valid       $end
$var wire    1  aaaac  data_req       $end
$var wire    1  aaaad  data_valid_sink       $end
$var wire    1  aaaae  data_req_sink       $end
$var real    1  aaaaf  source1_FFT       $end
$var real    1  aaaag  source1_img_FFT       $end
$var real    1  aaaah  source1_sink_FFT       $end
$var real    1  aaaai  source1_img_sink_FFT       $end
$upscope $end
$enddefinitions  $end

$comment
All initial values are dumped below at time 0 sec = 0 timescale units.
$end

$dumpvars
0aaaaa
0aaaab
0aaaac
0aaaad
0aaaae
r0 aaaaf
r0 aaaag
r0 aaaah
r0 aaaai
$end

#10
1aaaaa
1aaaac
1aaaae

#15
0aaaaa

#20
1aaaaa
1aaaab
r2011 aaaaf
r2011 aaaag

#25
0aaaaa

#30
1aaaaa

#35
0aaaaa

#40
1aaaaa

#45
0aaaaa

#50
1aaaaa

#55
0aaaaa

#60
1aaaaa

#65
0aaaaa

#70
1aaaaa

#75
0aaaaa

#80
1aaaaa

#85
0aaaaa

#90
1aaaaa

#95
0aaaaa

#100
1aaaaa
0aaaac
r1 aaaaf
r1 aaaag

#105
0aaaaa

#110
1aaaaa
1aaaac
1aaaad
r16088 aaaah
r16088 aaaai

#115
0aaaaa

#120
1aaaaa
r0 aaaaf
r0 aaaag
r0 aaaah
r0 aaaai

#125
0aaaaa

#130
1aaaaa

#135
0aaaaa

#140
1aaaaa

#145
0aaaaa

#150
1aaaaa

#155
0aaaaa

#160
1aaaaa

#165
0aaaaa

#170
1aaaaa

#175
0aaaaa

#180
1aaaaa

#185
0aaaaa

#190
1aaaaa
0aaaac
0aaaad
r456 aaaag

#195
0aaaaa

#200
1aaaaa
1aaaac
1aaaad
r1 aaaah
r1 aaaai

#205
0aaaaa

#210
1aaaaa
r120 aaaaf
r234 aaaag

#215
0aaaaa

#220
1aaaaa
r234 aaaaf
r120 aaaag

#225
0aaaaa

#230
1aaaaa
r120 aaaaf
r0 aaaag

#235
0aaaaa

#240
1aaaaa
r0 aaaaf
r-120 aaaag

#245
0aaaaa

#250
1aaaaa
r-120 aaaaf
r-234 aaaag

#255
0aaaaa

#260
1aaaaa
r-234 aaaaf
r-456 aaaag

#265
0aaaaa

#270
1aaaaa
r-120 aaaaf
r-768 aaaag

#275
0aaaaa

#280
1aaaaa
0aaaac
0aaaad
r123 aaaaf
r29 aaaag

#285
0aaaaa

#290
1aaaaa
1aaaac
1aaaad
r0 aaaah
r-768 aaaai

#295
0aaaaa

#300
1aaaaa
r34 aaaaf
r34 aaaag
r1449.9839815632 aaaah
r-443.543289336 aaaai

#305
0aaaaa

#310
1aaaaa
r-23 aaaaf
r85 aaaag
r768 aaaah
r672 aaaai

#315
0aaaaa

#320
1aaaaa
r12 aaaaf
r206 aaaag
r297.9839815632 aaaah
r916.720779384 aaaai

#325
0aaaaa

#330
1aaaaa
r45 aaaaf
r336 aaaag
r0 aaaah
r768 aaaai

#335
0aaaaa

#340
1aaaaa
r0 aaaaf
r593 aaaag
r-297.9839815632001 aaaah
r659.543289336 aaaai

#345
0aaaaa

#350
1aaaaa
r67 aaaaf
r823 aaaag
r-768 aaaah
r672 aaaai

#355
0aaaaa

#360
1aaaaa
r134 aaaaf
r422 aaaag
r-1449.9839815632 aaaah
r1171.279220616 aaaai

#365
0aaaaa

#370
1aaaaa
0aaaab
0aaaac
0aaaad

#375
0aaaaa

#380
1aaaaa
1aaaac
1aaaad
r392 aaaah
r2528 aaaai

#385
0aaaaa

#390
1aaaaa
r-1097.6990975628 aaaah
r-397.312229206 aaaai

#395
0aaaaa

#400
1aaaaa
r123 aaaah
r-431 aaaai

#405
0aaaaa

#410
1aaaaa
r157.6835867028 aaaah
r-92.23697730280003 aaaai

#415
0aaaaa

#420
1aaaaa
r32 aaaah
r18 aaaai

#425
0aaaaa

#430
1aaaaa
r-222.3009024372 aaaah
r-36.68777079399999 aaaai

#435
0aaaaa

#440
1aaaaa
r125 aaaah
r-655 aaaai

#445
0aaaaa

#450
1aaaaa
r1474.3164132972 aaaah
r-701.7630226972 aaaai

#455
0aaaaa

#460
1aaaaa
0aaaad

