waves.vcd
$date
     Feb 08, 2022       16:56:45
$end

$version
 SystemC 2.3.2-Accellera --- Feb  8 2022 10:00:21
$end

$timescale
     1 ns
$end

$scope module SystemC $end
$var wire    1  aaaaa  clk       $end
$var real    1  aaaab  fifo_0_0       $end
$var real    1  aaaac  fifo_0_1       $end
$var real    1  aaaad  fifo_0_2       $end
$var real    1  aaaae  fifo_0_3       $end
$var real    1  aaaaf  fifo_0_4       $end
$var real    1  aaaag  fifo_0_5       $end
$var real    1  aaaah  fifo_0_6       $end
$var real    1  aaaai  fifo_0_7       $end
$var real    1  aaaaj  fifo_0_8       $end
$var real    1  aaaak  fifo_0_9       $end
$var real    1  aaaal  fifo_0_10       $end
$var real    1  aaaam  fifo_0_11       $end
$var real    1  aaaan  fifo_0_12       $end
$var real    1  aaaao  fifo_0_13       $end
$var real    1  aaaap  fifo_0_14       $end
$var real    1  aaaaq  fifo_0_15       $end
$var real    1  aaaar  fifo_1_0       $end
$var real    1  aaaas  fifo_1_1       $end
$var real    1  aaaat  fifo_1_2       $end
$var real    1  aaaau  fifo_1_3       $end
$var real    1  aaaav  fifo_1_4       $end
$var real    1  aaaaw  fifo_1_5       $end
$var real    1  aaaax  fifo_1_6       $end
$var real    1  aaaay  fifo_1_7       $end
$var real    1  aaaaz  fifo_1_8       $end
$var real    1  aaaba  fifo_1_9       $end
$var real    1  aaabb  fifo_1_10       $end
$var real    1  aaabc  fifo_1_11       $end
$var real    1  aaabd  fifo_1_12       $end
$var real    1  aaabe  fifo_1_13       $end
$var real    1  aaabf  fifo_1_14       $end
$var real    1  aaabg  fifo_1_15       $end
$upscope $end
$enddefinitions  $end

$comment
All initial values are dumped below at time 0 sec = 0 timescale units.
$end

$dumpvars
0aaaaa
r0 aaaab
r0 aaaac
r0 aaaad
r0 aaaae
r3.559244355763391e-17 aaaaf
r1.832023514993055e+25 aaaag
r6.593495034451775e+22 aaaah
r7.555081327053433e+31 aaaai
r0 aaaaj
r0 aaaak
r0 aaaal
r0 aaaam
r0 aaaan
r0 aaaao
r0 aaaap
r0 aaaaq
r0 aaaar
r0 aaaas
r0 aaaat
r0 aaaau
r3.559244355763391e-17 aaaav
r1.832023514993055e+25 aaaaw
r6.593495034451775e+22 aaaax
r7.555081327053433e+31 aaaay
r0 aaaaz
r0 aaaba
r0 aaabb
r0 aaabc
r0 aaabd
r0 aaabe
r0 aaabf
r0 aaabg
$end

#10
1aaaaa
r2011 aaaar

#15
0aaaaa

#20
1aaaaa
r2011 aaaas

#25
0aaaaa

#30
1aaaaa
r0 aaaar
r0 aaaas
r2011 aaaat

#35
0aaaaa

#40
1aaaaa
r2011 aaaau

#45
0aaaaa

#50
1aaaaa
r0 aaaaf
r0 aaaat
r0 aaaau
r2011 aaaav

#55
0aaaaa

#60
1aaaaa
r0 aaaag
r2011 aaaaw

#65
0aaaaa

#70
1aaaaa
r0 aaaah
r0 aaaav
r0 aaaaw
r2011 aaaax

#75
0aaaaa

#80
1aaaaa
r0 aaaai
r2011 aaaay

#85
0aaaaa

#90
1aaaaa
r0 aaaax
r0 aaaay
r2011 aaaaz

#95
0aaaaa

#100
1aaaaa
r2011 aaaba

#105
0aaaaa

#110
1aaaaa
r0 aaaaz
r0 aaaba
r2011 aaabb

#115
0aaaaa

#120
1aaaaa
r2011 aaabc

#125
0aaaaa

#130
1aaaaa
r0 aaabb
r0 aaabc
r2011 aaabd

#135
0aaaaa

#140
1aaaaa
r2011 aaabe

#145
0aaaaa

#150
1aaaaa
r0 aaabd
r0 aaabe
r2011 aaabf

#155
0aaaaa

#160
1aaaaa
r2011 aaabg

#165
0aaaaa

#170
1aaaaa
r1 aaaar
r0 aaabf
r0 aaabg

#175
0aaaaa

#180
1aaaaa
r1 aaaas

#185
0aaaaa

#190
1aaaaa
r0 aaaar
r0 aaaas

#195
0aaaaa

#200
1aaaaa

#205
0aaaaa

#210
1aaaaa

#215
0aaaaa

#220
1aaaaa

#225
0aaaaa

#230
1aaaaa

#235
0aaaaa

#240
1aaaaa

#245
0aaaaa

#250
1aaaaa

#255
0aaaaa

#260
1aaaaa

#265
0aaaaa

#270
1aaaaa

#275
0aaaaa

#280
1aaaaa

#285
0aaaaa

#290
1aaaaa

#295
0aaaaa

#300
1aaaaa

#305
0aaaaa

#310
1aaaaa

#315
0aaaaa

#320
1aaaaa

#325
0aaaaa

#330
1aaaaa

#335
0aaaaa

#340
1aaaaa
r456 aaaas

#345
0aaaaa

#350
1aaaaa
r0 aaaas
r120 aaaat

#355
0aaaaa

#360
1aaaaa
r234 aaaau

#365
0aaaaa

#370
1aaaaa
r0 aaaat
r0 aaaau
r234 aaaav

#375
0aaaaa

#380
1aaaaa
r120 aaaaw

#385
0aaaaa

#390
1aaaaa
r0 aaaav
r0 aaaaw
r120 aaaax

#395
0aaaaa

#400
1aaaaa

#405
0aaaaa

#410
1aaaaa
r0 aaaax

#415
0aaaaa

#420
1aaaaa
r-120 aaaba

#425
0aaaaa

#430
1aaaaa
r0 aaaba
r-120 aaabb

#435
0aaaaa

#440
1aaaaa
r-234 aaabc

#445
0aaaaa

#450
1aaaaa
r0 aaabb
r0 aaabc
r-234 aaabd

#455
0aaaaa

#460
1aaaaa
r-456 aaabe

#465
0aaaaa

#470
1aaaaa
r0 aaabd
r0 aaabe
r-120 aaabf

#475
0aaaaa

#480
1aaaaa
r-768 aaabg

#485
0aaaaa

#490
1aaaaa
r123 aaaar
r0 aaabf
r0 aaabg

