waves.vcd
$date
     Feb 22, 2022       16:21:05
$end

$version
 SystemC 2.3.3-Accellera --- Feb 12 2022 19:51:55
$end

$timescale
     1 ns
$end

$scope module SystemC $end
$var wire    1  aaaaa  clk       $end
$var wire    1  aaaab  data_valid       $end
$var wire    1  aaaac  data_req       $end
$var real    1  aaaad  source1_FFT       $end
$var real    1  aaaae  source1_img_FFT       $end
$var real    1  aaaaf  fifo_0_0       $end
$var real    1  aaaag  fifo_0_1       $end
$var real    1  aaaah  fifo_0_2       $end
$var real    1  aaaai  fifo_0_3       $end
$var real    1  aaaaj  fifo_0_4       $end
$var real    1  aaaak  fifo_0_5       $end
$var real    1  aaaal  fifo_0_6       $end
$var real    1  aaaam  fifo_0_7       $end
$var real    1  aaaan  fifo_0_8       $end
$var real    1  aaaao  fifo_0_9       $end
$var real    1  aaaap  fifo_0_10       $end
$var real    1  aaaaq  fifo_0_11       $end
$var real    1  aaaar  fifo_0_12       $end
$var real    1  aaaas  fifo_0_13       $end
$var real    1  aaaat  fifo_0_14       $end
$var real    1  aaaau  fifo_0_15       $end
$upscope $end
$enddefinitions  $end

$comment
All initial values are dumped below at time 0 sec = 0 timescale units.
$end

$dumpvars
0aaaaa
0aaaab
0aaaac
r0 aaaad
r0 aaaae
r0 aaaaf
r0 aaaag
r0 aaaah
r0 aaaai
r3.559244355763391e-17 aaaaj
r1.832023514993055e+25 aaaak
r6.593495034451775e+22 aaaal
r7.555081327053433e+31 aaaam
r0 aaaan
r0 aaaao
r0 aaaap
r0 aaaaq
r0 aaaar
r0 aaaas
r0 aaaat
r0 aaaau
$end

#10
1aaaaa
1aaaac

#15
0aaaaa

#20
1aaaaa
1aaaab
r2011 aaaad
r2011 aaaae

#25
0aaaaa

#30
1aaaaa

#35
0aaaaa

#40
1aaaaa

#45
0aaaaa

#50
1aaaaa

#55
0aaaaa

#60
1aaaaa

#65
0aaaaa

#70
1aaaaa

#75
0aaaaa

#80
1aaaaa

#85
0aaaaa

#90
1aaaaa

#95
0aaaaa

#100
1aaaaa
0aaaac
r1 aaaad
r1 aaaae

#105
0aaaaa

#110
1aaaaa
1aaaac
r0 aaaaj
r0 aaaak
r0 aaaal
r0 aaaam

#115
0aaaaa

#120
1aaaaa
r0 aaaad
r0 aaaae

#125
0aaaaa

#130
1aaaaa

#135
0aaaaa

#140
1aaaaa

#145
0aaaaa

#150
1aaaaa

#155
0aaaaa

#160
1aaaaa

#165
0aaaaa

#170
1aaaaa

#175
0aaaaa

#180
1aaaaa

#185
0aaaaa

#190
1aaaaa
0aaaac
r456 aaaae

#195
0aaaaa

#200
1aaaaa
1aaaac

#205
0aaaaa

#210
1aaaaa
r120 aaaad
r234 aaaae

#215
0aaaaa

#220
1aaaaa
r234 aaaad
r120 aaaae

#225
0aaaaa

#230
1aaaaa
r120 aaaad
r0 aaaae

#235
0aaaaa

#240
1aaaaa
r0 aaaad
r-120 aaaae

#245
0aaaaa

#250
1aaaaa
r-120 aaaad
r-234 aaaae

#255
0aaaaa

#260
1aaaaa
r-234 aaaad
r-456 aaaae

#265
0aaaaa

#270
1aaaaa
r-120 aaaad
r-768 aaaae

#275
0aaaaa

#280
1aaaaa
0aaaac
r123 aaaad
r29 aaaae

#285
0aaaaa

#290
1aaaaa
1aaaac

#295
0aaaaa

#300
1aaaaa
r34 aaaad
r34 aaaae

#305
0aaaaa

#310
1aaaaa
r-23 aaaad
r85 aaaae

#315
0aaaaa

#320
1aaaaa
r12 aaaad
r206 aaaae

#325
0aaaaa

#330
1aaaaa
r45 aaaad
r336 aaaae

#335
0aaaaa

#340
1aaaaa
r0 aaaad
r593 aaaae

#345
0aaaaa

#350
1aaaaa
r67 aaaad
r823 aaaae

#355
0aaaaa

#360
1aaaaa
r134 aaaad
r422 aaaae

#365
0aaaaa

#370
1aaaaa
0aaaab
0aaaac

#375
0aaaaa

#380
1aaaaa
1aaaac

